codes/CPU.vcd
$date
	Mon Jan 24 22:06:15 2022
$end
$version
	Icarus Verilog
$end
$timescale
	1s
$end
$scope module testbench $end
$var wire 256 ! mem_cpu_data [255:0] $end
$var wire 1 " mem_cpu_ack $end
$var wire 1 # cpu_mem_write $end
$var wire 1 $ cpu_mem_enable $end
$var wire 256 % cpu_mem_data [255:0] $end
$var wire 32 & cpu_mem_addr [31:0] $end
$var reg 1 ' Clk $end
$var reg 1 ( Reset $end
$var reg 1 ) Start $end
$var reg 27 * address [26:0] $end
$var reg 1 + flag $end
$var reg 4 , index [3:0] $end
$var reg 24 - tag [23:0] $end
$var integer 32 . counter [31:0] $end
$var integer 32 / i [31:0] $end
$var integer 32 0 j [31:0] $end
$var integer 32 1 outfile [31:0] $end
$var integer 32 2 outfile2 [31:0] $end
$scope module CPU $end
$var wire 32 3 EX_inst [31:0] $end
$var wire 32 4 ID_inst [31:0] $end
$var wire 32 5 MEM_ALUResult [31:0] $end
$var wire 1 ' clk_i $end
$var wire 1 ( rst_i $end
$var wire 1 ) start_i $end
$var wire 1 # mem_write_o $end
$var wire 1 $ mem_enable_o $end
$var wire 256 6 mem_data_o [255:0] $end
$var wire 256 7 mem_data_i [255:0] $end
$var wire 32 8 mem_addr_o [31:0] $end
$var wire 1 " mem_ack_i $end
$var wire 1 9 WB_mux $end
$var wire 32 : WB_WriteData [31:0] $end
$var wire 32 ; WB_Rs2 [31:0] $end
$var wire 32 < WB_Rs1 [31:0] $end
$var wire 1 = WB_RegWrite $end
$var wire 5 > WB_Rd [4:0] $end
$var wire 1 ? Stall $end
$var wire 1 @ PCWrite $end
$var wire 1 A NoOp $end
$var wire 1 B MissStall $end
$var wire 5 C MEM_rd [4:0] $end
$var wire 1 D MEM_RegWrite $end
$var wire 32 E MEM_MuxResult [31:0] $end
$var wire 1 F MEM_MemtoReg $end
$var wire 1 G MEM_MemWrite $end
$var wire 1 H MEM_MemRead $end
$var wire 32 I MEM_DMData [31:0] $end
$var wire 32 J IF_inst [31:0] $end
$var wire 32 K IF_PC [31:0] $end
$var wire 32 L IF_MUXResult [31:0] $end
$var wire 32 M IF_AdderResult [31:0] $end
$var wire 1 N ID_RegWrite $end
$var wire 32 O ID_RS2 [31:0] $end
$var wire 32 P ID_RS1 [31:0] $end
$var wire 32 Q ID_PC [31:0] $end
$var wire 1 R ID_MemtoReg $end
$var wire 1 S ID_MemWrite $end
$var wire 1 T ID_MemRead $end
$var wire 32 U ID_ExtendedImm [31:0] $end
$var wire 32 V ID_AdderResult [31:0] $end
$var wire 1 W ID_ALUSrc $end
$var wire 2 X ID_ALUOp [1:0] $end
$var wire 2 Y ForwardB [1:0] $end
$var wire 2 Z ForwardA [1:0] $end
$var wire 1 [ EX_RegWrite $end
$var wire 32 \ EX_RS2 [31:0] $end
$var wire 32 ] EX_RS1 [31:0] $end
$var wire 1 ^ EX_MemtoReg $end
$var wire 1 _ EX_MemWrite $end
$var wire 1 ` EX_MemRead $end
$var wire 32 a EX_MUX2Result [31:0] $end
$var wire 32 b EX_ExtendedImm [31:0] $end
$var wire 1 c EX_ALUSrc $end
$var wire 32 d EX_ALUResult [31:0] $end
$var wire 2 e EX_ALUOp [1:0] $end
$var wire 3 f EX_ALUCtr [2:0] $end
$var wire 32 g EX_ALU2 [31:0] $end
$var wire 32 h EX_ALU1 [31:0] $end
$var wire 1 i Branch $end
$var reg 1 j Flush $end
$scope module Control $end
$var wire 7 k Op_i [6:0] $end
$var wire 1 A NoOp_i $end
$var reg 2 l ALUOp_o [1:0] $end
$var reg 1 W ALUSrc_o $end
$var reg 1 i Branch_o $end
$var reg 1 T MemRead_o $end
$var reg 1 S MemWrite_o $end
$var reg 1 R MemtoReg_o $end
$var reg 1 N RegWrite_o $end
$upscope $end
$scope module EXMEM $end
$var wire 32 m ALUResult_o [31:0] $end
$var wire 32 n MuxResult_o [31:0] $end
$var wire 1 ' clk_i $end
$var wire 5 o rd_i [4:0] $end
$var wire 1 ( rst_i $end
$var wire 5 p rd_o [4:0] $end
$var wire 1 D RegWrite_o $end
$var wire 1 [ RegWrite_i $end
$var wire 32 q MuxResult_i [31:0] $end
$var wire 1 F MemtoReg_o $end
$var wire 1 ^ MemtoReg_i $end
$var wire 1 G MemWrite_o $end
$var wire 1 _ MemWrite_i $end
$var wire 1 H MemRead_o $end
$var wire 1 ` MemRead_i $end
$var wire 1 B Data_Stall_i $end
$var wire 32 r ALUResult_i [31:0] $end
$upscope $end
$scope module EX_ALU $end
$var wire 32 s data2_i [31:0] $end
$var wire 32 t data1_i [31:0] $end
$var wire 3 u ALUCtrl_i [2:0] $end
$var reg 1 v Zero_o $end
$var reg 32 w data_o [31:0] $end
$upscope $end
$scope module EX_ALUCtrUnit $end
$var wire 10 x funct_i [9:0] $end
$var wire 2 y ALUOp_i [1:0] $end
$var reg 3 z ALUCtrl_o [2:0] $end
$upscope $end
$scope module EX_MUX1 $end
$var wire 32 { data3_i [31:0] $end
$var wire 32 | data4_i [31:0] $end
$var wire 2 } select_i [1:0] $end
$var wire 32 ~ data2_i [31:0] $end
$var wire 32 !" data1_i [31:0] $end
$var reg 32 "" data_o [31:0] $end
$upscope $end
$scope module EX_MUX2 $end
$var wire 32 #" data3_i [31:0] $end
$var wire 32 $" data4_i [31:0] $end
$var wire 2 %" select_i [1:0] $end
$var wire 32 &" data2_i [31:0] $end
$var wire 32 '" data1_i [31:0] $end
$var reg 32 (" data_o [31:0] $end
$upscope $end
$scope module EX_MUXALUSrc $end
$var wire 32 )" data1_i [31:0] $end
$var wire 1 c select_i $end
$var wire 32 *" data2_i [31:0] $end
$var reg 32 +" data_o [31:0] $end
$upscope $end
$scope module Hazard_Detection $end
$var wire 5 ," EX_rd_i [4:0] $end
$var wire 5 -" ID_rs1_i [4:0] $end
$var wire 5 ." ID_rs2_i [4:0] $end
$var wire 1 ` MemRead_i $end
$var reg 1 A NoOp_o $end
$var reg 1 @ PCWrite_o $end
$var reg 1 ? Stall_o $end
$upscope $end
$scope module IDEX $end
$var wire 2 /" ALUOp_i [1:0] $end
$var wire 1 W ALUSrc_i $end
$var wire 32 0" Imm_o [31:0] $end
$var wire 1 T MemRead_i $end
$var wire 1 S MemWrite_i $end
$var wire 1 R MemtoReg_i $end
$var wire 32 1" Rd1_o [31:0] $end
$var wire 32 2" Rd2_o [31:0] $end
$var wire 1 N RegWrite_i $end
$var wire 1 ' clk_i $end
$var wire 32 3" inst_i [31:0] $end
$var wire 32 4" inst_o [31:0] $end
$var wire 1 ( rst_i $end
$var wire 1 [ RegWrite_o $end
$var wire 32 5" Rd2_i [31:0] $end
$var wire 32 6" Rd1_i [31:0] $end
$var wire 1 ^ MemtoReg_o $end
$var wire 1 _ MemWrite_o $end
$var wire 1 ` MemRead_o $end
$var wire 32 7" Imm_i [31:0] $end
$var wire 1 B Data_Stall_i $end
$var wire 1 c ALUSrc_o $end
$var wire 2 8" ALUOp_o [1:0] $end
$upscope $end
$scope module ID_PCAdder $end
$var wire 32 9" data1_in [31:0] $end
$var wire 32 :" data2_in [31:0] $end
$var reg 32 ;" data_o [31:0] $end
$upscope $end
$scope module ID_SignExtend $end
$var wire 32 <" data_i [31:0] $end
$var reg 32 =" data_o [31:0] $end
$var reg 12 >" imm [11:0] $end
$upscope $end
$scope module IFID $end
$var wire 1 j Flush_i $end
$var wire 32 ?" PC_o [31:0] $end
$var wire 1 ? Stall_i $end
$var wire 1 ' clk_i $end
$var wire 32 @" inst_o [31:0] $end
$var wire 1 ( rst_i $end
$var wire 32 A" inst_i [31:0] $end
$var wire 32 B" PC_i [31:0] $end
$var wire 1 B Data_Stall_i $end
$upscope $end
$scope module IF_PCAdder $end
$var wire 32 C" data2_in [31:0] $end
$var wire 32 D" data1_in [31:0] $end
$var reg 32 E" data_o [31:0] $end
$upscope $end
$scope module IF_PCMUX $end
$var wire 32 F" data1_i [31:0] $end
$var wire 32 G" data2_i [31:0] $end
$var wire 1 j select_i $end
$var reg 32 H" data_o [31:0] $end
$upscope $end
$scope module Instruction_Memory $end
$var wire 32 I" instr_o [31:0] $end
$var wire 32 J" addr_i [31:0] $end
$upscope $end
$scope module MEMWB $end
$var wire 1 F MemtoReg_i $end
$var wire 1 D RegWrite_i $end
$var wire 32 K" Rs1_i [31:0] $end
$var wire 32 L" Rs1_o [31:0] $end
$var wire 32 M" Rs2_o [31:0] $end
$var wire 1 ' clk_i $end
$var wire 5 N" rd_i [4:0] $end
$var wire 1 ( rst_i $end
$var wire 5 O" rd_o [4:0] $end
$var wire 32 P" Rs2_i [31:0] $end
$var wire 1 = RegWrite_o $end
$var wire 1 9 MemtoReg_o $end
$var wire 1 B Data_Stall_i $end
$upscope $end
$scope module PC $end
$var wire 1 @ PCWrite_i $end
$var wire 1 ' clk_i $end
$var wire 32 Q" pc_i [31:0] $end
$var wire 1 ( rst_i $end
$var wire 1 ) start_i $end
$var wire 1 B stall_i $end
$var reg 32 R" pc_o [31:0] $end
$upscope $end
$scope module Registers $end
$var wire 5 S" RDaddr_i [4:0] $end
$var wire 5 T" RS1addr_i [4:0] $end
$var wire 5 U" RS2addr_i [4:0] $end
$var wire 1 = RegWrite_i $end
$var wire 1 ' clk_i $end
$var wire 32 V" RS2data_o [31:0] $end
$var wire 32 W" RS1data_o [31:0] $end
$var wire 32 X" RDdata_i [31:0] $end
$upscope $end
$scope module WB_MUX $end
$var wire 32 Y" data1_i [31:0] $end
$var wire 32 Z" data2_i [31:0] $end
$var wire 1 9 select_i $end
$var reg 32 [" data_o [31:0] $end
$upscope $end
$scope module dcache $end
$var wire 1 \" cache_dirty $end
$var wire 1 ]" cache_sram_enable $end
$var wire 4 ^" cache_sram_index [3:0] $end
$var wire 1 _" cache_sram_write $end
$var wire 1 ' clk_i $end
$var wire 1 H cpu_MemRead_i $end
$var wire 1 G cpu_MemWrite_i $end
$var wire 32 `" cpu_addr_i [31:0] $end
$var wire 32 a" cpu_data_i [31:0] $end
$var wire 32 b" cpu_data_o [31:0] $end
$var wire 1 c" cpu_req $end
$var wire 1 B cpu_stall_o $end
$var wire 256 d" mem_data_o [255:0] $end
$var wire 1 $ mem_enable_o $end
$var wire 1 # mem_write_o $end
$var wire 1 ( rst_i $end
$var wire 1 e" write_hit $end
$var wire 1 f" sram_valid $end
$var wire 23 g" sram_tag [22:0] $end
$var wire 1 h" sram_dirty $end
$var wire 25 i" sram_cache_tag [24:0] $end
$var wire 256 j" sram_cache_data [255:0] $end
$var wire 256 k" r_hit_data [255:0] $end
$var wire 256 l" mem_data_i [255:0] $end
$var wire 32 m" mem_addr_o [31:0] $end
$var wire 1 " mem_ack_i $end
$var wire 1 n" hit $end
$var wire 23 o" cpu_tag [22:0] $end
$var wire 5 p" cpu_offset [4:0] $end
$var wire 4 q" cpu_index [3:0] $end
$var wire 25 r" cache_sram_tag [24:0] $end
$var wire 256 s" cache_sram_data [255:0] $end
$var reg 1 t" cache_write $end
$var reg 32 u" cpu_data [31:0] $end
$var reg 1 v" mem_enable $end
$var reg 1 w" mem_write $end
$var reg 3 x" state [2:0] $end
$var reg 256 y" w_hit_data [255:0] $end
$var reg 1 z" write_back $end
$scope module dcache_sram $end
$var wire 4 {" addr_i [3:0] $end
$var wire 1 ' clk_i $end
$var wire 256 |" data_i [255:0] $end
$var wire 1 ]" enable_i $end
$var wire 1 ( rst_i $end
$var wire 25 }" tag_i [24:0] $end
$var wire 1 _" write_i $end
$var wire 1 ~" zeroHit $end
$var wire 25 !# tag_o [24:0] $end
$var wire 1 "# oneHit $end
$var wire 1 n" hit_o $end
$var wire 256 ## data_o [255:0] $end
$var integer 32 $# i [31:0] $end
$var integer 32 %# j [31:0] $end
$upscope $end
$upscope $end
$scope module forwardUnit $end
$var wire 5 &# EX_Rs1_i [4:0] $end
$var wire 5 '# EX_Rs2_i [4:0] $end
$var wire 5 (# MEM_Rd_i [4:0] $end
$var wire 1 D MEM_RegWrite_i $end
$var wire 5 )# WB_Rd_i [4:0] $end
$var wire 1 = WB_RegWrite_i $end
$var reg 2 *# ForwardA_o [1:0] $end
$var reg 2 +# ForwardB_o [1:0] $end
$upscope $end
$upscope $end
$scope module Data_Memory $end
$var wire 1 " ack_o $end
$var wire 32 ,# addr_i [31:0] $end
$var wire 1 ' clk_i $end
$var wire 256 -# data_i [255:0] $end
$var wire 256 .# data_o [255:0] $end
$var wire 1 $ enable_i $end
$var wire 1 ( rst_i $end
$var wire 1 # write_i $end
$var wire 27 /# addr [26:0] $end
$var reg 4 0# count [3:0] $end
$var reg 256 1# data [255:0] $end
$var reg 2 2# state [1:0] $end
$upscope $end
$upscope $end
$enddefinitions $end
#0
$dumpvars
b0 2#
bx 1#
b0 0#
bx /#
bx .#
bx -#
bx00000 ,#
b0 +#
b0 *#
bx )#
bx (#
bx '#
bx &#
b10 %#
b10000 $#
bx ##
x"#
bx !#
x~"
b1xxxxxxxxxxxxxxxxxxxxxxxx }"
bx |"
bx {"
0z"
bx y"
b0 x"
0w"
0v"
bx u"
0t"
bx s"
b1xxxxxxxxxxxxxxxxxxxxxxxx r"
bx q"
bx p"
bx o"
xn"
bx00000 m"
bx l"
bx k"
bx j"
bx i"
xh"
bx g"
xf"
xe"
bx d"
xc"
bx b"
bx a"
bx `"
x_"
bx ^"
x]"
x\"
b0 ["
bx Z"
bx Y"
b0 X"
bx W"
bx V"
bx U"
bx T"
bx S"
b0 R"
b100 Q"
bx P"
bx O"
bx N"
bx M"
bx L"
bx K"
b0 J"
bx I"
b100 H"
bx G"
b100 F"
b100 E"
b0 D"
b100 C"
b0 B"
bx A"
bx @"
bx ?"
b0 >"
b0 ="
bx <"
bx ;"
bx :"
b0 9"
bx 8"
b0 7"
bx 6"
bx 5"
bx 4"
bx 3"
bx 2"
bx 1"
bx 0"
b10 /"
bx ."
bx -"
bx ,"
bx +"
bx *"
bx )"
bx ("
bx '"
b0 &"
b0 %"
bz $"
bx #"
bx ""
bx !"
b0 ~
b0 }
bz |
bx {
b0 z
bx y
bx x
bx w
xv
b0 u
bx t
bx s
bx r
bx q
bx p
bx o
bx n
bx m
b10 l
bx k
0j
0i
bx h
bx g
b0 f
bx e
bx d
xc
bx b
bx a
x`
x_
x^
bx ]
bx \
x[
b0 Z
b0 Y
b10 X
0W
bx V
b0 U
0T
0S
0R
bx Q
bx P
bx O
0N
b100 M
b100 L
b0 K
bx J
bx I
xH
xG
xF
bx E
xD
bx C
xB
0A
0@
0?
bx >
x=
bx <
bx ;
b0 :
x9
bx00000 8
bx 7
bx 6
bx 5
bx 4
bx 3
bx 2
bx 1
bx 0
bx /
b0 .
bx -
bx ,
x+
bx *
0)
1(
0'
bx00000 &
bx %
0$
0#
0"
bx !
$end
#12
b0 I
b0 P"
b0 b"
b0 u"
b0 /#
0~"
0"#
0n"
b0 g"
0h"
0f"
b0 k"
0B
b0 i"
b0 !#
b0 %
b0 6
b0 d"
b0 -#
b0 j"
b0 ##
0_"
1v
b0 d
b0 r
b0 w
b0 &
b0 8
b0 m"
b0 ,#
b0 y"
0]"
0c"
0\"
0e"
b0 g
b0 s
b0 +"
b11 f
b11 u
b11 z
1@
b0 P
b0 6"
b0 W"
b0 O
b0 5"
b0 V"
b0 >
b0 O"
b0 S"
b0 )#
09
0=
b1000000000000000000000000 r"
b1000000000000000000000000 }"
b0 o"
b0 ^"
b0 {"
b0 q"
b0 p"
b0 C
b0 p
b0 N"
b0 (#
0H
0G
0F
0D
b0 a
b0 q
b0 ("
b0 )"
b0 h
b0 t
b0 ""
b0 ,"
b0 x
b0 &#
b0 '#
b0 o
0c
b0 e
b0 y
b0 8"
0`
0_
0^
0[
b0 -"
b0 ."
b0 k
b0 T"
b0 U"
b0 V
b0 ;"
b0 G"
b0 ;
b0 M"
b0 Z"
b0 <
b0 L"
b0 Y"
b0 5
b0 m
b0 {
b0 #"
b0 K"
b0 `"
b0 E
b0 n
b0 a"
b0 \
b0 '"
b0 2"
b0 ]
b0 !"
b0 1"
b0 b
b0 *"
b0 0"
b0 3
b0 4"
b0 4
b0 3"
b0 <"
b0 @"
b0 Q
b0 :"
b0 ?"
b101 2
b11 1
b10 0
b10011110000011 J
b10011110000011 A"
b10011110000011 I"
b1000000000 /
1)
0(
#25
1W
b0 X
b0 l
b0 /"
1T
1R
1N
b1000 L
b1000 H"
b1000 Q"
b11 k
b10 e
b10 y
b10 8"
b1000000100001111101011110010011 J
b1000000100001111101011110010011 A"
b1000000100001111101011110010011 I"
b1000 M
b1000 E"
b1000 F"
b10011110000011 4
b10011110000011 3"
b10011110000011 <"
b10011110000011 @"
b100 K
b100 B"
b100 D"
b100 J"
b100 R"
b1 .
0+
1'
#50
0'
#75
0W
0N
1?
1A
0@
b11 X
b11 l
b11 /"
0T
0R
b100000010000 9"
b1100 L
b1100 H"
b1100 Q"
b1111 ,"
b10 x
b1111 o
1c
b0 e
b0 y
b0 8"
1`
1^
1[
b1111 -"
b1000 ."
b10011 k
b1111 T"
b1000 U"
b10000001000 U
b10000001000 7"
b10000001000 ="
b10000001000 >"
b100000010100 V
b100000010100 ;"
b100000010100 G"
b111100000010000000100011 J
b111100000010000000100011 A"
b111100000010000000100011 I"
b1100 M
b1100 E"
b1100 F"
b10011110000011 3
b10011110000011 4"
b1000000100001111101011110010011 4
b1000000100001111101011110010011 3"
b1000000100001111101011110010011 <"
b1000000100001111101011110010011 @"
b100 Q
b100 :"
b100 ?"
b1000 K
b1000 B"
b1000 D"
b1000 J"
b1000 R"
b10 .
1'
#100
0'
#125
1W
b1 X
b1 l
b1 /"
1N
1B
0?
0A
1@
1]"
1c"
b10 Z
b10 }
b10 *#
b100000101 x
b1111 &#
b1000 '#
0c
b11 e
b11 y
b11 8"
0`
0^
0[
b1111 C
b1111 p
b1111 N"
b1111 (#
1H
1F
1D
b10000001000 b
b10000001000 *"
b10000001000 0"
b1000000100001111101011110010011 3
b1000000100001111101011110010011 4"
b11 .
1'
#150
0'
#175
b100 x"
b100 .
1+
1'
#200
0'
#225
b1 x"
1$
1v"
b101 .
1'
#250
0'
#275
b1 0#
b1 2#
b110 .
1'
#300
0'
#325
b10 0#
b111 .
1'
#350
0'
#375
b11 0#
b1000 .
1'
#400
0'
#425
b100 0#
b1001 .
1'
#450
0'
#475
b101 0#
b1010 .
1'
#500
0'
#525
b110 0#
b1011 .
1'
#550
0'
#575
b111 0#
b1100 .
1'
#600
0'
#625
b1000 0#
b1101 .
1'
#650
0'
#675
1"
b1001 0#
b1110 .
1'
#700
0'
#725
b100010001000100100010001000100011001100110011010001000100010001010101010101010110011001100110011101110111011110001000100010001001100110011001101010101010101010111011101110111100110011001100110111011101110111101110111011101111111111111111 s"
b100010001000100100010001000100011001100110011010001000100010001010101010101010110011001100110011101110111011110001000100010001001100110011001101010101010101010111011101110111100110011001100110111011101110111101110111011101111111111111111 |"
0"
1_"
b100010001000100100010001000100011001100110011010001000100010001010101010101010110011001100110011101110111011110001000100010001001100110011001101010101010101010111011101110111100110011001100110111011101110111101110111011101111111111111111 !
b100010001000100100010001000100011001100110011010001000100010001010101010101010110011001100110011101110111011110001000100010001001100110011001101010101010101010111011101110111100110011001100110111011101110111101110111011101111111111111111 7
b100010001000100100010001000100011001100110011010001000100010001010101010101010110011001100110011101110111011110001000100010001001100110011001101010101010101010111011101110111100110011001100110111011101110111101110111011101111111111111111 l"
b100010001000100100010001000100011001100110011010001000100010001010101010101010110011001100110011101110111011110001000100010001001100110011001101010101010101010111011101110111100110011001100110111011101110111101110111011101111111111111111 .#
b100010001000100100010001000100011001100110011010001000100010001010101010101010110011001100110011101110111011110001000100010001001100110011001101010101010101010111011101110111100110011001100110111011101110111101110111011101111111111111111 1#
b0 0#
b0 2#
b10 x"
1t"
0$
0v"
b1111 .
1'
#750
0'
#775
b100010001000100100010001000100011001100110011010001000100010001010101010101010110011001100110011101110111011110001000100010001001100110011001101010101010101010111011101110111100110011001100110111011101110100000000000000000000000000000000 y"
b11101110111011101111111111111111 I
b11101110111011101111111111111111 P"
b11101110111011101111111111111111 b"
b11101110111011101111111111111111 u"
0B
b100010001000100100010001000100011001100110011010001000100010001010101010101010110011001100110011101110111011110001000100010001001100110011001101010101010101010111011101110111100110011001100110111011101110111101110111011101111111111111111 k"
b100010001000100100010001000100011001100110011010001000100010001010101010101010110011001100110011101110111011110001000100010001001100110011001101010101010101010111011101110111100110011001100110111011101110100000000000000000000000000000000 s"
b100010001000100100010001000100011001100110011010001000100010001010101010101010110011001100110011101110111011110001000100010001001100110011001101010101010101010111011101110111100110011001100110111011101110100000000000000000000000000000000 |"
1f"
1n"
b1000000000000000000000000 i"
b1000000000000000000000000 !#
b100010001000100100010001000100011001100110011010001000100010001010101010101010110011001100110011101110111011110001000100010001001100110011001101010101010101010111011101110111100110011001100110111011101110111101110111011101111111111111111 %
b100010001000100100010001000100011001100110011010001000100010001010101010101010110011001100110011101110111011110001000100010001001100110011001101010101010101010111011101110111100110011001100110111011101110111101110111011101111111111111111 6
b100010001000100100010001000100011001100110011010001000100010001010101010101010110011001100110011101110111011110001000100010001001100110011001101010101010101010111011101110111100110011001100110111011101110111101110111011101111111111111111 d"
b100010001000100100010001000100011001100110011010001000100010001010101010101010110011001100110011101110111011110001000100010001001100110011001101010101010101010111011101110111100110011001100110111011101110111101110111011101111111111111111 -#
b100010001000100100010001000100011001100110011010001000100010001010101010101010110011001100110011101110111011110001000100010001001100110011001101010101010101010111011101110111100110011001100110111011101110111101110111011101111111111111111 j"
b100010001000100100010001000100011001100110011010001000100010001010101010101010110011001100110011101110111011110001000100010001001100110011001101010101010101010111011101110111100110011001100110111011101110111101110111011101111111111111111 ##
1~"
0_"
b0 x"
0t"
b10000 .
1'
#800
0'
#825
b100010001000100100010001000100011001100110011010001000100010001010101010101010110011001100110011101110111011110001000100010001001100110011001101010101010101010111011101110111100110011001100110111011101110111101110111011101111111111111111 s"
b100010001000100100010001000100011001100110011010001000100010001010101010101010110011001100110011101110111011110001000100010001001100110011001101010101010101010111011101110111100110011001100110111011101110111101110111011101111111111111111 |"
b0 y"
b0 I
b0 P"
b0 b"
b0 u"
0n"
0f"
b0 k"
b11101110111011101111111111111111 O
b11101110111011101111111111111111 5"
b11101110111011101111111111111111 V"
b0 i"
b0 !#
b0 %
b0 6
b0 d"
b0 -#
b0 j"
b0 ##
0v
b11111111111011101110111011111111 d
b11111111111011101110111011111111 r
b11111111111011101110111011111111 w
b0 X
b0 l
b0 /"
1S
0N
b0 9"
b10000001000 g
b10000001000 s
b10000001000 +"
b111 f
b111 u
b111 z
0]"
0c"
b11101110111011101111111111111111 h
b11101110111011101111111111111111 t
b11101110111011101111111111111111 ""
b1 Z
b1 }
b1 *#
b10000 L
b10000 H"
b10000 Q"
b0 -"
b1111 ."
b100011 k
b0 T"
b1111 U"
b0 U
b0 7"
b0 ="
b0 >"
b1000 V
b1000 ;"
b1000 G"
1c
b1 e
b1 y
b1 8"
1[
0H
0F
0D
b11101110111011101111111111111111 :
b11101110111011101111111111111111 ~
b11101110111011101111111111111111 &"
b11101110111011101111111111111111 X"
b11101110111011101111111111111111 ["
b1111 >
b1111 O"
b1111 S"
b1111 )#
19
1=
b10000000010011100000011 J
b10000000010011100000011 A"
b10000000010011100000011 I"
b10000 M
b10000 E"
b10000 F"
b111100000010000000100011 4
b111100000010000000100011 3"
b111100000010000000100011 <"
b111100000010000000100011 @"
b1000 Q
b1000 :"
b1000 ?"
b11101110111011101111111111111111 ;
b11101110111011101111111111111111 M"
b11101110111011101111111111111111 Z"
b1100 K
b1100 B"
b1100 D"
b1100 J"
b1100 R"
b10001 .
0+
1'
#850
0'
#875
b111111111110111011101110111 /#
0~"
1v
b0 O
b0 5"
b0 V"
b0 h
b0 t
b0 ""
b11111111111011101110111011100000 &
b11111111111011101110111011100000 8
b11111111111011101110111011100000 m"
b11111111111011101110111011100000 ,#
bx00000000 I
bx00000000 P"
bx00000000 b"
bx00000000 u"
b0 d
b0 r
b0 w
b10 Y
b10 %"
b10 +#
b0 Z
b0 }
b0 *#
b11 f
b11 u
b11 z
0S
1T
1R
1N
b1000 9"
b10100 L
b10100 H"
b10100 Q"
b0 :
b0 ~
b0 &"
b0 X"
b0 ["
09
0=
b1011111111111011101110111 r"
b1011111111111011101110111 }"
b11111111111011101110111 o"
b111 ^"
b111 {"
b111 q"
b11111 p"
1D
b11111111111011101110111011111111 a
b11111111111011101110111011111111 q
b11111111111011101110111011111111 ("
b11111111111011101110111011111111 )"
b0 g
b0 s
b0 +"
b0 ,"
b10 x
b0 &#
b1111 '#
b0 o
b0 e
b0 y
b0 8"
1_
0[
b100 ."
b11 k
b100 U"
b100 U
b100 7"
b100 ="
b100 >"
b10100 V
b10100 ;"
b10100 G"
b1000000100001110101011100010011 J
b1000000100001110101011100010011 A"
b1000000100001110101011100010011 I"
b10100 M
b10100 E"
b10100 F"
b0 ;
b0 M"
b0 Z"
b11111111111011101110111011111111 5
b11111111111011101110111011111111 m
b11111111111011101110111011111111 {
b11111111111011101110111011111111 #"
b11111111111011101110111011111111 K"
b11111111111011101110111011111111 `"
b11101110111011101111111111111111 \
b11101110111011101111111111111111 '"
b11101110111011101111111111111111 2"
b0 b
b0 *"
b0 0"
b111100000010000000100011 3
b111100000010000000100011 4"
b10000000010011100000011 4
b10000000010011100000011 3"
b10000000010011100000011 <"
b10000000010011100000011 @"
b1100 Q
b1100 :"
b1100 ?"
b10000 K
b10000 B"
b10000 D"
b10000 J"
b10000 R"
b10010 .
1'
#900
0'
#925
1_"
b100010001000100100010001000100011001100110011010001000100010001010101010101010110011001100110011101110111011110001000100010001001100110011001101010101010101010111011101110111100110011001100110111011101110111101110111011101111111111111111 k"
b100010001000100100010001000100011001100110011010001000100010001010101010101010110011001100110011101110111011110001000100010001001100110011001101010101010101010111011101110111100110011001100110111011101110111111111111011101110111011111111 s"
b100010001000100100010001000100011001100110011010001000100010001010101010101010110011001100110011101110111011110001000100010001001100110011001101010101010101010111011101110111100110011001100110111011101110111111111111011101110111011111111 |"
1\"
1e"
1f"
1n"
b1000000000000000000000000 i"
b1000000000000000000000000 !#
b100010001000100100010001000100011001100110011010001000100010001010101010101010110011001100110011101110111011110001000100010001001100110011001101010101010101010111011101110111100110011001100110111011101110111101110111011101111111111111111 %
b100010001000100100010001000100011001100110011010001000100010001010101010101010110011001100110011101110111011110001000100010001001100110011001101010101010101010111011101110111100110011001100110111011101110111101110111011101111111111111111 6
b100010001000100100010001000100011001100110011010001000100010001010101010101010110011001100110011101110111011110001000100010001001100110011001101010101010101010111011101110111100110011001100110111011101110111101110111011101111111111111111 d"
b100010001000100100010001000100011001100110011010001000100010001010101010101010110011001100110011101110111011110001000100010001001100110011001101010101010101010111011101110111100110011001100110111011101110111101110111011101111111111111111 -#
b100010001000100100010001000100011001100110011010001000100010001010101010101010110011001100110011101110111011110001000100010001001100110011001101010101010101010111011101110111100110011001100110111011101110111101110111011101111111111111111 j"
b100010001000100100010001000100011001100110011010001000100010001010101010101010110011001100110011101110111011110001000100010001001100110011001101010101010101010111011101110111100110011001100110111011101110111101110111011101111111111111111 ##
b0 /#
1~"
0B
0W
b11 X
b11 l
b11 /"
0T
0R
0N
b100000010000 9"
0v
b100 d
b100 r
b100 w
1?
1A
0@
b0 &
b0 8
b0 m"
b0 ,#
b11101110111011101111111111111111 I
b11101110111011101111111111111111 P"
b11101110111011101111111111111111 b"
b11101110111011101111111111111111 u"
1]"
1c"
b0 Y
b0 %"
b0 +#
b11000 L
b11000 H"
b11000 Q"
b1110 -"
b1000 ."
b10011 k
b1110 T"
b1000 U"
b10000001000 U
b10000001000 7"
b10000001000 ="
b10000001000 >"
b100000100000 V
b100000100000 ;"
b100000100000 G"
b100 g
b100 s
b100 +"
b1110 ,"
b100 '#
b1110 o
1`
0_
1^
1[
b0 a
b0 q
b0 ("
b0 )"
b1100000000000000000000000 r"
b1100000000000000000000000 }"
b0 o"
b0 ^"
b0 {"
b0 q"
b0 p"
b100010001000100100010001000100011001100110011010001000100010001010101010101010110011001100110011101110111011110001000100010001001100110011001101010101010101010111011101110111100110011001100110111011101110111111111111011101110111011111111 y"
b0 C
b0 p
b0 N"
b0 (#
1G
0D
b11111111111011101110111011111111 :
b11111111111011101110111011111111 ~
b11111111111011101110111011111111 &"
b11111111111011101110111011111111 X"
b11111111111011101110111011111111 ["
1=
b111000000010001000100011 J
b111000000010001000100011 A"
b111000000010001000100011 I"
b11000 M
b11000 E"
b11000 F"
b1000000100001110101011100010011 4
b1000000100001110101011100010011 3"
b1000000100001110101011100010011 <"
b1000000100001110101011100010011 @"
b10000 Q
b10000 :"
b10000 ?"
b0 \
b0 '"
b0 2"
b100 b
b100 *"
b100 0"
b10000000010011100000011 3
b10000000010011100000011 4"
b0 5
b0 m
b0 {
b0 #"
b0 K"
b0 `"
b11111111111011101110111011111111 E
b11111111111011101110111011111111 n
b11111111111011101110111011111111 a"
bx00000000 ;
bx00000000 M"
bx00000000 Z"
b11111111111011101110111011111111 <
b11111111111011101110111011111111 L"
b11111111111011101110111011111111 Y"
b10100 K
b10100 B"
b10100 D"
b10100 J"
b10100 R"
b10011 .
1'
#950
0'
